<?xml version="1.0" standalone="no"?>
<!DOCTYPE svg PUBLIC "-//W3C//DTD SVG 1.1//EN" "http://www.w3.org/Graphics/SVG/1.1/DTD/svg11.dtd" >
<svg xmlns="http://www.w3.org/2000/svg">
<metadata>Generated by IcoMoon</metadata>
<defs>
<font id="icomoon" horiz-adv-x="1024">
<font-face units-per-em="1024" ascent="960" descent="-64" />
<missing-glyph horiz-adv-x="1024" />
<glyph unicode="&#x20;" horiz-adv-x="512" d="" />
<glyph unicode="&#xe900;" glyph-name="caret-down" d="M28.16 750.387l483.84-604.774 483.84 604.774z" />
<glyph unicode="&#xe901;" glyph-name="calendar" d="M856.986 824.32c0.153 0.001 0.333 0.001 0.514 0.001 51.634 0 93.491-41.857 93.491-93.491 0-0.217-0.001-0.433-0.002-0.649v0.033-689.869c0.001-0.183 0.002-0.399 0.002-0.616 0-51.634-41.857-93.491-93.491-93.491-0.181 0-0.361 0.001-0.542 0.002h-689.943c-0.153-0.001-0.333-0.001-0.514-0.001-51.634 0-93.491 41.857-93.491 93.491 0 0.217 0.001 0.433 0.002 0.649v-0.033 689.869c-0.001 0.183-0.002 0.399-0.002 0.616 0 51.634 41.857 93.491 93.491 93.491 0.181 0 0.361-0.001 0.542-0.002h94.078v101.888c-0.003 0.136-0.005 0.295-0.005 0.455 0 6.366 2.629 12.119 6.86 16.231l0.005 0.005c4.117 4.237 9.87 6.865 16.236 6.865 0.16 0 0.32-0.002 0.479-0.005h78.312c0.136 0.003 0.295 0.005 0.455 0.005 6.366 0 12.119-2.629 16.231-6.86l0.005-0.005c4.237-4.117 6.865-9.87 6.865-16.236 0-0.16-0.002-0.32-0.005-0.479v0.024-102.4h250.88v102.4c-0.003 0.136-0.005 0.295-0.005 0.455 0 6.366 2.629 12.119 6.86 16.231l0.005 0.005c4.117 4.237 9.87 6.865 16.236 6.865 0.16 0 0.32-0.002 0.479-0.005h78.312c0.136 0.003 0.295 0.005 0.455 0.005 6.366 0 12.119-2.629 16.231-6.86l0.005-0.005c4.237-4.117 6.865-9.87 6.865-16.236 0-0.16-0.002-0.32-0.005-0.479v0.024-102.4zM845.21 40.346c3.131 0.179 5.887 1.646 7.769 3.875l0.013 0.016c2.279 1.924 3.779 4.711 3.992 7.85l0.002 0.035v583.68h-689.971v-583.68c0.215-3.174 1.714-5.96 3.977-7.871l0.017-0.014c1.896-2.245 4.652-3.713 7.753-3.89l0.029-0.001z" />
<glyph unicode="&#xe902;" glyph-name="user" d="M512 515.686c116.558 1.038 210.646 95.768 210.646 212.472 0 0.687-0.003 1.373-0.010 2.058l0.001-0.105c0 116.331-94.305 210.637-210.637 210.637s-210.637-94.305-210.637-210.637v0c-0.006-0.581-0.009-1.267-0.009-1.954 0-116.705 94.088-211.434 210.547-212.471l0.098-0.001zM512 408.371c-210.842 0-381.747-174.080-381.747-389.12 0 0.41 189.235-73.011 381.747-73.011 189.235 0 381.747 73.421 381.747 73.421 0 214.733-170.906 388.71-381.747 388.71z" />
<glyph unicode="&#xe903;" glyph-name="user-add" d="M775.373 416.256c4.813 0 9.523 0 14.336 0-7.068 10.183-15.327 18.897-24.722 26.222l-0.263 0.198c-28.774 21.504-66.048 28.57-98.918 41.574-17.693 6.803-32.128 13.448-46.094 20.861l2.266-1.098c-41.849-46.921-102.478-76.325-169.976-76.325-1.443 0-2.883 0.013-4.32 0.040l0.215-0.003c-1.248-0.025-2.72-0.039-4.195-0.039-67.47 0-128.071 29.406-169.687 76.101l-0.198 0.226c-11.593-6.227-26.027-12.87-40.856-18.729l-2.971-1.035c-32.973-13.005-70.144-20.48-98.918-41.574-49.152-37.683-61.85-121.549-71.885-178.995-7.988-41.847-13.567-91.182-15.506-141.45l-0.058-1.91c-1.331-37.171 16.998-42.291 47.923-53.555 32.474-12.051 72.344-23.427 113.255-31.971l5.734-1.002c70.597-16.897 152.302-27.639 236.148-29.768l1.522-0.031c41.438 0.532 81.626 3.604 121.048 9.070l-5.029-0.571c-28.39 40.823-45.357 91.443-45.357 146.025 0 141.912 114.692 257.037 256.439 257.738h0.067zM775.373 365.056c-0.396 0.003-0.863 0.004-1.331 0.004-113.843 0-206.131-92.288-206.131-206.131s92.288-206.131 206.131-206.131c113.842 0 206.129 92.286 206.131 206.127v0c0 0.061 0 0.134 0 0.206 0 113.272-91.593 205.152-204.756 205.617h-0.044zM865.075 123.597h-54.579v-54.784c0.033-0.567 0.051-1.231 0.051-1.899 0-19.455-15.771-35.226-35.226-35.226s-35.226 15.771-35.226 35.226c0 0.668 0.019 1.331 0.055 1.99l-0.004-0.091v54.477h-54.067c-19.511 0-35.328 15.817-35.328 35.328s15.817 35.328 35.328 35.328h54.579v54.886c-0.033 0.567-0.051 1.231-0.051 1.899 0 19.455 15.771 35.226 35.226 35.226s35.226-15.771 35.226-35.226c0-0.668-0.019-1.331-0.055-1.99l0.004 0.091v-54.886h54.579c19.511 0 35.328-15.817 35.328-35.328s-15.817-35.328-35.328-35.328v0zM456.909 542.003c109.375 1.038 197.641 89.945 197.641 199.467 0 0.651-0.003 1.301-0.009 1.951l0.001-0.099c0.033 1.34 0.051 2.917 0.051 4.499 0 109.206-88.529 197.734-197.734 197.734s-197.734-88.529-197.734-197.734c0-1.582 0.019-3.16 0.056-4.733l-0.004 0.234c-0.005-0.52-0.008-1.134-0.008-1.749 0-109.578 88.311-198.53 197.643-199.568l0.099-0.001z" />
<glyph unicode="&#xe904;" glyph-name="facebook" d="M742.502 944.538h-119.603c-134.349 0-221.184-96.358-221.184-245.76v-113.050h-120.218c-10.454-0.439-18.762-9.021-18.762-19.542 0-0.33 0.008-0.658 0.024-0.984l-0.002 0.046v-163.84c-0.018-0.31-0.028-0.672-0.028-1.036 0-10.503 8.322-19.062 18.732-19.443l0.035-0.001h120.218v-414.208c-0.014-0.279-0.022-0.605-0.022-0.934 0-10.558 8.365-19.161 18.829-19.545l0.035-0.001h156.877c10.454 0.439 18.762 9.021 18.762 19.542 0 0.33-0.008 0.658-0.024 0.984l0.002-0.046v414.208h141.107c10.49 0.327 18.869 8.908 18.869 19.447 0 0.363-0.010 0.724-0.030 1.083l0.002-0.050v163.84c0 0.008 0 0.018 0 0.027 0 5.535-2.142 10.57-5.643 14.321l0.011-0.012c-3.231 3.712-7.938 6.067-13.196 6.144h-141.12v96.051c0 46.080 10.24 69.53 65.741 69.53h80.486c10.508 0.442 18.859 9.068 18.859 19.644 0 0.294-0.006 0.586-0.019 0.877l0.001-0.041v152.371c0.009 0.22 0.014 0.478 0.014 0.738 0 10.539-8.292 19.141-18.708 19.638l-0.045 0.002z" />
<glyph unicode="&#xe905;" glyph-name="search" d="M985.805 65.741l-228.045 227.533c55.492 66.266 89.296 152.343 89.6 246.308v0.066c0 218.726-185.549 396.698-413.696 396.698s-413.184-177.971-413.184-396.698 185.139-396.8 413.082-396.8c0.414-0.001 0.904-0.002 1.395-0.002 83.984 0 162.245 24.504 228.023 66.753l-1.681-1.010 230.298-229.786c12.121-11.786 28.688-19.054 46.954-19.054 17.423 0 33.302 6.613 45.262 17.466l-0.056-0.050c12.253 11.269 19.903 27.377 19.903 45.272 0 16.896-6.82 32.2-17.858 43.307l0.003-0.003zM716.8 539.648c0-149.709-126.874-271.462-283.034-271.462s-283.136 121.754-283.136 271.462 126.976 271.462 282.931 271.462 283.238-121.856 283.238-271.462z" />
<glyph unicode="&#xe906;" glyph-name="clock" d="M512 929.28c-265.804 0-481.28-215.476-481.28-481.28s215.476-481.28 481.28-481.28c265.804 0 481.28 215.476 481.28 481.28v0c0 265.804-215.476 481.28-481.28 481.28v0zM512 69.12c-209.25 0-378.88 169.63-378.88 378.88s169.63 378.88 378.88 378.88c209.25 0 378.88-169.63 378.88-378.88v0c0-209.25-169.63-378.88-378.88-378.88v0zM762.778 462.848h-216.269v260.096c0 21.886-17.742 39.629-39.629 39.629s-39.629-17.742-39.629-39.629v0-299.725c0.058-21.863 17.766-39.571 39.623-39.629h256.006c21.886 0 39.629 17.742 39.629 39.629s-17.742 39.629-39.629 39.629v0z" />
<glyph unicode="&#xe907;" glyph-name="play" d="M672.461 467.046l-202.035 146.842c-3.967 2.914-8.947 4.662-14.336 4.662-13.443 0-24.344-10.884-24.371-24.321v-293.584c0.003-9.42 5.351-17.591 13.176-21.645l0.136-0.064c3.219-1.661 7.022-2.643 11.053-2.662h0.006c5.409 0.016 10.394 1.822 14.396 4.856l-0.060-0.043 202.035 146.432c6.166 4.446 10.155 11.579 10.24 19.647v0.013c0 0.050 0.001 0.109 0.001 0.168 0 8.113-4.015 15.288-10.166 19.647l-0.075 0.050zM512 934.298c-268.575 0-486.298-217.723-486.298-486.298s217.723-486.298 486.298-486.298c268.575 0 486.298 217.723 486.298 486.298v0c0 268.575-217.723 486.298-486.298 486.298v0zM512 42.906c-0.030 0-0.066 0-0.102 0-223.727 0-405.094 181.367-405.094 405.094s181.367 405.094 405.094 405.094c223.727 0 405.094-181.367 405.094-405.094v0c0-0.030 0-0.066 0-0.102 0-223.671-181.321-404.992-404.992-404.992v0z" />
<glyph unicode="&#xe908;" glyph-name="envelope" d="M676.352 341.504c-20.48-16.384-37.99-29.082-51.2-38.298-14.854-10.151-31.846-19.539-49.715-27.287l-1.997-0.771c-17.766-8.581-38.572-13.812-60.544-14.333l-0.179-0.003h-0.717c-22.391 0.404-43.461 5.649-62.34 14.726l0.9-0.39c-20.015 8.461-37.148 17.856-53.188 28.74l1.067-0.683c-12.8 9.216-29.798 21.914-50.278 38.298-5.837 4.608-12.288 9.523-19.354 14.848l-280.576-297.472c14.734-14.318 34.869-23.146 57.066-23.146 0.278 0 0.555 0.001 0.832 0.004h811.785c0.235-0.002 0.512-0.004 0.79-0.004 22.197 0 42.332 8.828 57.086 23.165l-0.020-0.019-280.064 296.96zM73.626 543.334c-21.111 15.021-39.437 31.884-55.451 50.769l-0.357 0.431v-452.198l246.784 261.837q-74.035 54.784-190.976 139.162zM950.989 543.334q-112.64-80.794-191.59-139.264l246.784-261.734v451.994c-16.312-19.107-34.42-35.883-54.3-50.375l-0.893-0.621zM112.64 606.003q18.739-14.131 112.64-83.354l88.781-65.536 55.706-40.96 8.192-6.246 15.258-11.571c11.981-9.216 21.914-16.589 29.798-22.221s17.408-12.083 28.672-19.046c9.117-5.968 19.582-11.311 30.618-15.497l1.126-0.375c8.44-3.453 18.221-5.572 28.463-5.835l0.106-0.002h1.126c9.942 0.199 19.381 2.097 28.122 5.414l-0.576-0.192c12.121 4.56 22.552 9.903 32.265 16.254l-0.623-0.382c11.264 6.963 20.48 13.312 28.774 19.046s17.818 13.005 29.696 22.221l14.336 11.878 8.192 6.246 55.808 40.96 202.752 149.197c26.659 19.738 49.022 43.503 66.639 70.633l0.637 1.047c16.761 24.81 26.83 55.344 27.033 88.217v0.052c0.007 0.437 0.012 0.952 0.012 1.468 0 25.158-10.003 47.979-26.248 64.705l0.022-0.022c-15.244 16.881-37.208 27.444-61.64 27.444-0.146 0-0.291 0-0.437-0.001h-811.805c-1.126 0.059-2.444 0.092-3.771 0.092-25.095 0-47.383-12.020-61.42-30.618l-0.141-0.195c-14.331-19.841-22.922-44.652-22.922-71.469 0-1.623 0.031-3.238 0.094-4.845l-0.007 0.231c0-24.576 10.24-51.2 30.72-79.77 17.84-26.028 39.032-48.164 63.287-66.455l0.713-0.515z" />
<glyph unicode="&#xe909;" glyph-name="user-o" d="M697.242 355.328c0.564 0.004 1.231 0.006 1.899 0.006 49.88 0 96.754-12.866 137.487-35.459l-1.453 0.739c41.807-22.561 75.892-54.612 100.216-93.407l0.648-1.108c23.069-36.275 36.766-80.473 36.766-127.869 0-0.514-0.002-1.028-0.005-1.541v0.079-50.176c0.005-0.329 0.007-0.718 0.007-1.108 0-25.587-11.080-48.586-28.704-64.462l-0.078-0.069c-17.654-16.753-41.571-27.057-67.895-27.057-0.755 0-1.508 0.008-2.258 0.025l0.112-0.002h-724.275c-0.639-0.015-1.392-0.023-2.147-0.023-26.324 0-50.241 10.304-67.938 27.098l0.043-0.041c-17.522 15.929-28.478 38.814-28.478 64.257 0 0.486 0.004 0.97 0.012 1.454l-0.001-0.073v50.176c-0.003 0.434-0.004 0.948-0.004 1.462 0 47.397 13.697 91.594 37.348 128.85l-0.582-0.981c24.972 39.903 59.057 71.955 99.461 93.821l1.403 0.694c39.279 21.854 86.154 34.72 136.034 34.72 0.667 0 1.334-0.002 2.001-0.007l-0.102 0.001c25.398-1.214 49.277-6.030 71.688-13.953l-1.748 0.539c19.251-5.222 35.021-9.011 47.411-11.674 20.411-3.648 43.908-5.734 67.891-5.734s47.48 2.086 70.318 6.086l-2.426-0.352c12.39 2.662 28.16 6.451 47.411 11.674 20.662 7.384 44.541 12.2 69.369 13.393l0.57 0.022zM874.291 46.592v50.176c0.001 0.152 0.001 0.332 0.001 0.513 0 46.2-20.208 87.679-52.267 116.082l-0.162 0.141c-31.665 30.489-74.792 49.27-122.304 49.27-0.815 0-1.628-0.006-2.44-0.017l0.123 0.001c-15.024-1.125-28.968-3.891-42.25-8.139l1.29 0.356c-42.757-14.31-92.005-22.747-143.168-23.141l-0.192-0.001c-51.992 0.541-101.826 8.965-148.624 24.13l3.523-0.987c-11.865 3.646-25.789 6.397-40.126 7.72l-0.834 0.062c-0.719 0.011-1.568 0.017-2.418 0.017-47.513 0-90.64-18.781-122.361-49.324l0.056 0.053c-32.222-28.544-52.43-70.024-52.43-116.223 0-0.18 0-0.36 0.001-0.541v0.028-50.176zM512 386.56c-0.727-0.006-1.586-0.010-2.447-0.010-53.492 0-103.721 13.975-147.233 38.473l1.507-0.78c-44.449 24.445-80.803 58.603-107.124 99.79l-0.703 1.176c-25.181 39.389-40.137 87.427-40.137 138.957s14.956 99.567 40.764 140.007l-0.627-1.051c26.98 42.494 63.342 76.759 106.324 100.512l1.504 0.762c42.804 23.72 93.858 37.681 148.173 37.681s105.369-13.961 149.769-38.49l-1.596 0.809c44.485-24.515 80.847-58.779 107.122-100.087l0.705-1.186c25.181-39.389 40.137-87.427 40.137-138.957s-14.956-99.567-40.764-140.007l0.627 1.051c-27.059-42.556-63.526-76.86-106.624-100.613l-1.511-0.763c-41.826-23.466-91.795-37.287-144.992-37.287-1.010 0-2.020 0.005-3.028 0.015l0.154-0.001zM512 849.408c-1.28 0.030-2.788 0.047-4.299 0.047-52.595 0-100.386-20.566-135.771-54.096l0.089 0.084c-35.466-31.997-57.661-78.118-57.661-129.424 0-0.652 0.004-1.302 0.011-1.952l-0.001 0.099c-0.009-0.645-0.014-1.407-0.014-2.17 0-51.208 22.202-97.231 57.506-128.967l0.159-0.141c35.276-33.565 83.113-54.215 135.773-54.215 1.479 0 2.955 0.016 4.427 0.049l-0.219-0.004c1.284-0.030 2.797-0.047 4.313-0.047 52.609 0 100.404 20.609 135.752 54.194l-0.085-0.080c35.463 31.876 57.666 77.9 57.666 129.108 0 0.798-0.005 1.596-0.016 2.391l0.001-0.121c0.006 0.551 0.010 1.202 0.010 1.853 0 51.305-22.195 97.427-57.507 129.287l-0.154 0.137c-35.295 33.445-83.087 54.012-135.682 54.012-1.512 0-3.019-0.017-4.523-0.051l0.224 0.004z" />
<glyph unicode="&#xe90a;" glyph-name="twitter" d="M1000.653 766.464c-33.505-15.99-72.39-27.626-113.273-32.873l-1.927-0.202c41.9 26.989 73.12 67.443 87.774 115.149l0.393 1.485c-36.526-23.305-79.153-41.051-124.756-50.75l-2.528-0.45c-35.907 40.685-88.112 66.268-146.296 66.458h-0.034c-110.797 0-200.499-94.208-200.499-210.637-0.001-0.182-0.001-0.397-0.001-0.612 0-16.805 1.903-33.165 5.506-48.877l-0.282 1.464c-168.879 10.236-316.378 93.773-412.301 218.924l-0.985 1.339c-17.077-30.32-27.138-66.561-27.138-105.153 0-0.292 0.001-0.584 0.002-0.876v0.045c-0.004-0.49-0.006-1.068-0.006-1.648 0-71.339 34.955-134.514 88.672-173.332l0.627-0.431c-33.687 1.104-64.895 10.78-91.798 26.9l0.866-0.481v-2.662c0-102.4 69.12-187.29 160.87-206.643-15.845-4.672-34.048-7.36-52.879-7.36-13.283 0-26.254 1.337-38.784 3.885l1.245-0.211c24.228-83.014 98.209-143.205 186.726-146.422l0.358-0.010c-67.165-56.076-154.417-90.123-249.621-90.123-16.685 0-33.126 1.046-49.261 3.075l1.922-0.197c86.069-59.14 192.493-94.496 307.17-94.618h0.030c368.64 0 570.368 321.024 570.368 599.45 0 9.216 0 18.227 0 27.341 39.393 30.349 72.553 66.443 98.831 107.377l1.009 1.679z" />
<glyph unicode="&#xe90b;" glyph-name="instagram" d="M731.341 942.080h-438.682c-149.376-0.87-270.133-122.165-270.133-271.663 0-0.361 0.001-0.723 0.002-1.084v0.055-442.778c-0.001-0.275-0.002-0.601-0.002-0.927 0-149.519 120.744-270.836 270.045-271.764h438.77c149.389 0.929 270.133 122.246 270.133 271.765 0 0.326-0.001 0.652-0.002 0.977v-0.051 442.778c0.001 0.305 0.002 0.667 0.002 1.028 0 149.498-120.756 270.792-270.050 271.662h-0.083zM914.637 226.611c0.001-0.214 0.001-0.467 0.001-0.72 0-101.438-81.941-183.737-183.242-184.317h-438.737c-101.401 0.522-183.4 82.844-183.4 184.318 0 0.253 0.001 0.505 0.002 0.758v-0.039 442.778c-0.001 0.214-0.001 0.466-0.001 0.719 0 101.474 81.999 183.795 183.35 184.318h438.732c101.356-0.58 183.297-82.88 183.297-184.317 0-0.253-0.001-0.506-0.002-0.759v0.039zM512 702.669c-0.73 0.008-1.594 0.012-2.458 0.012-140.65 0-254.669-114.019-254.669-254.669s114.019-254.669 254.669-254.669c140.646 0 254.662 114.013 254.669 254.657v0c0.001 0.215 0.001 0.469 0.001 0.723 0 139.642-112.708 252.96-252.118 253.946l-0.094 0.001zM512 281.088c-0.456-0.005-0.996-0.007-1.536-0.007-92.183 0-166.912 74.729-166.912 166.912s74.729 166.912 166.912 166.912c92.18 0 166.908-74.725 166.912-166.904v-0.001c0.001-0.214 0.002-0.466 0.002-0.719 0-91.5-73.943-165.729-165.333-166.193h-0.044zM774.861 777.011c-17.618-0.060-33.544-7.252-45.052-18.838l-0.004-0.004c-11.491-11.706-18.597-27.752-18.637-45.458v-0.008c0.093-17.737 7.184-33.8 18.651-45.583l-0.014 0.015c11.505-11.587 27.443-18.759 45.056-18.759s33.551 7.172 45.052 18.755l0.004 0.004c11.488 11.747 18.59 27.823 18.637 45.559v0.009c0 0.020 0 0.043 0 0.066 0 17.699-7.116 33.736-18.643 45.406l0.006-0.007c-11.506 11.599-27.436 18.794-45.047 18.842h-0.009z" />
<glyph unicode="&#xe90c;" glyph-name="rss" d="M975.462 35.328c0.065-1.168 0.102-2.536 0.102-3.911 0-41.284-33.468-74.752-74.752-74.752s-74.752 33.468-74.752 74.752c0 1.376 0.037 2.743 0.111 4.101l-0.008-0.189c0 411.546-316.314 746.189-705.024 746.189-41.504 1.239-74.678 35.18-74.678 76.87 0 0.731 0.010 1.461 0.031 2.187l-0.002-0.107c-0.020 0.65-0.031 1.415-0.031 2.183 0 41.691 33.175 75.633 74.567 76.868l0.114 0.003c471.040 0 854.323-405.606 854.323-904.192zM121.139 570.061c-41.894-2.2-75.030-36.706-75.030-78.95s33.136-76.75 74.835-78.942l0.195-0.008c196.301 0 356.045-168.96 356.045-376.832-0.098-1.432-0.154-3.104-0.154-4.79 0-41.284 33.468-74.752 74.752-74.752s74.752 33.468 74.752 74.752c0 1.685-0.056 3.357-0.166 5.015l0.012-0.225c0 294.81-227.021 534.733-505.242 534.733zM180.429 215.962c-61.44 0-111.411-52.838-111.411-117.965s49.869-117.862 111.411-117.862 111.411 52.736 111.411 117.862-49.971 117.965-111.411 117.965z" />
<glyph unicode="&#xe90d;" glyph-name="map-marker" d="M512 934.4c-202.24 0-366.899-161.485-366.899-360.038-0.001-0.363-0.002-0.792-0.002-1.221 0-52.848 11.855-102.927 33.051-147.723l-0.895 2.103c92.16-196.915 267.571-404.89 319.283-463.974 3.771-4.261 9.253-6.934 15.36-6.934s11.589 2.673 15.341 6.912l0.019 0.022c51.917 58.88 227.738 266.854 319.488 463.974 20.301 42.694 32.156 92.773 32.156 145.621 0 0.465-0.001 0.93-0.003 1.395v-0.072c-0.102 198.451-164.659 359.936-366.899 359.936zM512 387.379c-0.46-0.004-1.003-0.006-1.547-0.006-103.681 0-187.866 83.472-189.018 186.88l-0.001 0.109c0 105.247 85.319 190.566 190.566 190.566s190.566-85.319 190.566-190.566v0c-1.154-103.517-85.339-186.989-189.019-186.989-0.544 0-1.087 0.002-1.63 0.007l0.083-0.001z" />
<glyph unicode="&#xe90e;" glyph-name="mobile" d="M737.28 934.4h-450.56c-43.11 0-77.824-30.72-77.824-69.53v-838.963c0.307-38.707 35.021-69.427 77.824-69.427h450.56c43.008 0 77.824 30.72 77.824 69.427v838.963c-0.307 38.4-35.123 69.53-77.824 69.53zM400.998 892.211h222.106c5.632 0 10.24-7.475 10.24-16.691s-4.506-16.794-10.24-16.794h-222.106c-5.632 0-10.24 7.475-10.24 16.794s4.608 16.691 10.24 16.691zM512 25.088c-22.403 2.608-39.628 21.474-39.628 44.363 0 24.658 19.989 44.646 44.646 44.646s44.646-19.989 44.646-44.646c0-0.117 0-0.233-0.001-0.349v0.018c-1.733-24.708-22.202-44.096-47.2-44.096-0.867 0-1.728 0.023-2.584 0.069l0.119-0.005zM756.531 177.050h-488.96v639.59h488.96z" />
<glyph unicode="&#xe90f;" glyph-name="arrow-left" d="M795.546 863.949l-415.846-415.949 415.846-415.846-75.571-75.674-491.52 491.52 491.52 491.52z" />
<glyph unicode="&#xe910;" glyph-name="arrow-right" d="M228.454 32.051l415.846 415.949-415.846 415.846 75.571 75.674 491.52-491.52-491.52-491.52z" />
<glyph unicode="&#xe911;" glyph-name="arrow-up" d="M927.949 164.454l-415.949 415.846-415.846-415.846-75.674 75.571 491.52 491.52 491.52-491.52z" />
</font></defs></svg>